[gd_scene load_steps=5 format=2]

[ext_resource path="res://src/World/Wave.tscn" type="PackedScene" id=1]
[ext_resource path="res://src/World/EnemySpawner.tscn" type="PackedScene" id=2]
[ext_resource path="res://src/Actors/PassiveObstacle.tscn" type="PackedScene" id=3]
[ext_resource path="res://src/Actors/Enemy.tscn" type="PackedScene" id=4]

[node name="Wave1" instance=ExtResource( 1 )]
music_track = "bass"

[node name="EnemySpawner" parent="." index="0" instance=ExtResource( 2 )]
enemy = ExtResource( 3 )
total_spawned = 2

[node name="EnemySpawner2" parent="." index="1" instance=ExtResource( 2 )]
enemy = ExtResource( 4 )
total_spawned = 2
