[gd_resource type="DynamicFont" load_steps=2 format=2]

[ext_resource path="res://assets/fonts/ttf/kenney_fontpackage/Kenney Mini.ttf" type="DynamicFontData" id=1]

[resource]
size = 8
font_data = ExtResource( 1 )
