[gd_scene load_steps=4 format=2]

[ext_resource path="res://assets/art/exhaust.png" type="Texture" id=1]

[sub_resource type="Curve" id=1]
_data = [ Vector2( 0.00408998, 0.982955 ), 0.0, 0.0, 0, 0, Vector2( 0.997955, 0 ), 0.0, 0.0, 0, 0 ]

[sub_resource type="Gradient" id=2]
colors = PoolColorArray( 0.00784314, 0.501961, 0, 0.392157, 0.00784314, 0.501961, 0, 0 )

[node name="ExhaustParticles" type="CPUParticles2D"]
amount = 20
lifetime = 0.5
local_coords = false
texture = ExtResource( 1 )
direction = Vector2( 0, 0 )
gravity = Vector2( 0, 200 )
scale_amount_curve = SubResource( 1 )
color_ramp = SubResource( 2 )
