[gd_scene load_steps=3 format=2]

[ext_resource path="res://src/Modules/Core/DebugOverlay.gd" type="Script" id=1]
[ext_resource path="res://assets/themes/flat.theme" type="Theme" id=4]

[node name="DebugOverlay" type="CanvasLayer"]
layer = 110
script = ExtResource( 1 )

[node name="screen" type="Control" parent="."]
anchor_right = 1.0
anchor_bottom = 1.0
mouse_filter = 2
theme = ExtResource( 4 )
__meta__ = {
"_edit_use_anchors_": false
}

[node name="bg" type="PanelContainer" parent="screen"]
visible = false
self_modulate = Color( 1, 1, 1, 0.196078 )
margin_right = 14.0
margin_bottom = 14.0
__meta__ = {
"_edit_use_anchors_": false
}

[node name="Label" type="Label" parent="screen/bg"]
modulate = Color( 0.219608, 0.85098, 0.45098, 0.392157 )
margin_left = 16.0
margin_top = 8.0
margin_right = 50.0
margin_bottom = 35.0
text = "text"
__meta__ = {
"_edit_use_anchors_": false
}

[node name="game_version" type="Label" parent="screen"]
self_modulate = Color( 0.231373, 0.411765, 0.470588, 1 )
anchor_top = 1.0
anchor_bottom = 1.0
margin_top = -27.0
margin_right = 70.0
text = "10.10.10"
__meta__ = {
"_edit_use_anchors_": false
}

[node name="UpdateTimer" type="Timer" parent="."]
wait_time = 0.2

[connection signal="timeout" from="UpdateTimer" to="." method="_on_UpdateTimer_timeout"]
